{
    "id": 4240,
    "distance": 340579,
    "time": 3,
    "company": {
        "name": "Ms. Pansy Tremblay",
        "email": "tressa.mayert@yahoo.com"
    },
    "carrier": {
        "name": "Onie Lowe",
        "email": "maida.corwin@gmail.com"
    },
    "route": [
        {
            "stop_id": 250456,
            "postcode": "19217",
            "city": "Schlagsdorf",
            "country": "DE"
        },
        {
            "stop_id": 270605,
            "postcode": "82418",
            "city": "Riegsee",
            "country": "DE"
        }
    ]
}
